module gitlab.com/isard/isardvdi

go 1.18

require (
	github.com/bolkedebruin/rdpgw v1.0.4
	github.com/crewjam/saml v0.4.14
	github.com/fsnotify/fsnotify v1.7.0
	github.com/go-faster/errors v0.7.0
	github.com/go-faster/jx v1.1.0
	github.com/go-ldap/ldap/v3 v3.4.6
	github.com/golang-jwt/jwt/v5 v5.1.0
	github.com/google/uuid v1.4.0
	// https://github.com/grafana/loki/issues/2826. This is the equivalent of the main branch at 2023/11/27 (d62d4e37d1f3dba83cf10a1f6db82830794e1c05)
	github.com/grafana/loki v0.0.0-20231124145642-d62d4e37d1f3
	github.com/jellydator/ttlcache/v3 v3.1.0
	github.com/mitchellh/mapstructure v1.5.0
	github.com/mxschmitt/golang-combinations v1.2.0
	github.com/ogen-go/ogen v0.80.1
	github.com/oracle/oci-go-sdk/v65 v65.51.0
	github.com/patrickmn/go-cache v2.1.0+incompatible
	github.com/prometheus/client_golang v1.16.0
	github.com/prometheus/common v0.44.0
	github.com/rs/zerolog v1.31.0
	github.com/shirou/gopsutil/v3 v3.23.9
	github.com/spf13/viper v1.16.0
	github.com/stretchr/testify v1.8.4
	github.com/teris-io/shortid v0.0.0-20220617161101-71ec9f2aa569
	gitlab.com/isard/isardvdi-sdk-go v1.8.1
	go.opentelemetry.io/otel v1.21.0
	go.opentelemetry.io/otel/metric v1.21.0
	go.opentelemetry.io/otel/trace v1.21.0
	go.uber.org/multierr v1.11.0
	golang.org/x/crypto v0.16.0
	golang.org/x/oauth2 v0.13.0
	google.golang.org/api v0.132.0
	google.golang.org/grpc v1.59.0
	google.golang.org/protobuf v1.31.0
	gopkg.in/rethinkdb/rethinkdb-go.v6 v6.2.2
	libvirt.org/go/libvirt v1.9007.0
	libvirt.org/go/libvirtxml v1.9007.0
)

require (
	cloud.google.com/go/compute v1.23.0 // indirect
	cloud.google.com/go/compute/metadata v0.2.3 // indirect
	github.com/Azure/azure-sdk-for-go/sdk/azcore v1.7.0 // indirect
	github.com/Azure/azure-sdk-for-go/sdk/azidentity v1.3.0 // indirect
	github.com/Azure/azure-sdk-for-go/sdk/internal v1.3.0 // indirect
	github.com/Azure/go-ntlmssp v0.0.0-20221128193559-754e69321358 // indirect
	github.com/AzureAD/microsoft-authentication-library-for-go v1.0.0 // indirect
	github.com/HdrHistogram/hdrhistogram-go v1.1.2 // indirect
	github.com/Masterminds/goutils v1.1.1 // indirect
	github.com/Masterminds/semver/v3 v3.2.0 // indirect
	github.com/Masterminds/sprig/v3 v3.2.3 // indirect
	github.com/Workiva/go-datastructures v1.1.0 // indirect
	github.com/alecthomas/units v0.0.0-20211218093645-b94a6e3cc137 // indirect
	github.com/armon/go-metrics v0.4.1 // indirect
	github.com/asaskevich/govalidator v0.0.0-20230301143203-a9d515a09cc2 // indirect
	github.com/aws/aws-sdk-go v1.44.321 // indirect
	github.com/beevik/etree v1.1.0 // indirect
	github.com/beorn7/perks v1.0.1 // indirect
	github.com/buger/jsonparser v1.1.1 // indirect
	github.com/c2h5oh/datasize v0.0.0-20220606134207-859f65c6625b // indirect
	github.com/cespare/xxhash v1.1.0 // indirect
	github.com/cespare/xxhash/v2 v2.2.0 // indirect
	github.com/coreos/go-semver v0.3.0 // indirect
	github.com/coreos/go-systemd/v22 v22.5.0 // indirect
	github.com/crewjam/httperr v0.2.0 // indirect
	github.com/davecgh/go-spew v1.1.2-0.20180830191138-d8f796af33cc // indirect
	github.com/dennwc/varint v1.0.0 // indirect
	github.com/dgryski/go-rendezvous v0.0.0-20200823014737-9f7001d12a5f // indirect
	github.com/dlclark/regexp2 v1.10.0 // indirect
	github.com/dustin/go-humanize v1.0.1 // indirect
	github.com/edsrzf/mmap-go v1.1.0 // indirect
	github.com/facette/natsort v0.0.0-20181210072756-2cd4dd1e2dcb // indirect
	github.com/fatih/color v1.16.0 // indirect
	github.com/felixge/httpsnoop v1.0.3 // indirect
	github.com/ghodss/yaml v1.0.0 // indirect
	github.com/go-asn1-ber/asn1-ber v1.5.5 // indirect
	github.com/go-faster/yaml v0.4.6 // indirect
	github.com/go-kit/log v0.2.1 // indirect
	github.com/go-logfmt/logfmt v0.6.0 // indirect
	github.com/go-logr/logr v1.3.0 // indirect
	github.com/go-logr/stdr v1.2.2 // indirect
	github.com/go-ole/go-ole v1.2.6 // indirect
	github.com/go-openapi/analysis v0.21.4 // indirect
	github.com/go-openapi/errors v0.20.4 // indirect
	github.com/go-openapi/jsonpointer v0.20.0 // indirect
	github.com/go-openapi/jsonreference v0.20.2 // indirect
	github.com/go-openapi/loads v0.21.2 // indirect
	github.com/go-openapi/spec v0.20.9 // indirect
	github.com/go-openapi/strfmt v0.21.7 // indirect
	github.com/go-openapi/swag v0.22.4 // indirect
	github.com/go-openapi/validate v0.22.1 // indirect
	github.com/go-redis/redis/v8 v8.11.5 // indirect
	github.com/gofrs/flock v0.8.1 // indirect
	github.com/gogo/googleapis v1.4.0 // indirect
	github.com/gogo/protobuf v1.3.2 // indirect
	github.com/gogo/status v1.1.1 // indirect
	github.com/golang-jwt/jwt/v4 v4.5.0 // indirect
	github.com/golang/groupcache v0.0.0-20210331224755-41bb18bfe9da // indirect
	github.com/golang/protobuf v1.5.3 // indirect
	github.com/golang/snappy v0.0.4 // indirect
	github.com/google/btree v1.1.2 // indirect
	github.com/google/go-querystring v1.1.0 // indirect
	github.com/google/s2a-go v0.1.7 // indirect
	github.com/googleapis/enterprise-certificate-proxy v0.3.1 // indirect
	github.com/googleapis/gax-go/v2 v2.12.0 // indirect
	github.com/gorilla/mux v1.8.0 // indirect
	github.com/gorilla/websocket v1.5.0 // indirect
	github.com/grafana/dskit v0.0.0-20231120170505-765e343eda4f // indirect
	github.com/grafana/gomemcache v0.0.0-20231023152154-6947259a0586 // indirect
	github.com/grafana/loki/pkg/push v0.0.0-20231124142027-e52380921608 // indirect
	github.com/grafana/regexp v0.0.0-20221122212121-6b5c0a4cb7fd // indirect
	github.com/grpc-ecosystem/go-grpc-middleware v1.3.0 // indirect
	github.com/hailocab/go-hostpool v0.0.0-20160125115350-e80d13ce29ed // indirect
	github.com/hashicorp/consul/api v1.25.1 // indirect
	github.com/hashicorp/errwrap v1.1.0 // indirect
	github.com/hashicorp/go-cleanhttp v0.5.2 // indirect
	github.com/hashicorp/go-hclog v1.5.0 // indirect
	github.com/hashicorp/go-immutable-radix v1.3.1 // indirect
	github.com/hashicorp/go-msgpack v0.5.5 // indirect
	github.com/hashicorp/go-multierror v1.1.1 // indirect
	github.com/hashicorp/go-rootcerts v1.0.2 // indirect
	github.com/hashicorp/go-sockaddr v1.0.2 // indirect
	github.com/hashicorp/golang-lru v0.6.0 // indirect
	github.com/hashicorp/hcl v1.0.0 // indirect
	github.com/hashicorp/memberlist v0.5.0 // indirect
	github.com/hashicorp/serf v0.10.1 // indirect
	github.com/huandu/xstrings v1.3.3 // indirect
	github.com/imdario/mergo v0.3.16 // indirect
	github.com/jmespath/go-jmespath v0.4.0 // indirect
	github.com/jonboulle/clockwork v0.2.2 // indirect
	github.com/josharian/intern v1.0.0 // indirect
	github.com/jpillora/backoff v1.0.0 // indirect
	github.com/json-iterator/go v1.1.12 // indirect
	github.com/julienschmidt/httprouter v1.3.0 // indirect
	github.com/klauspost/compress v1.17.0 // indirect
	github.com/kylelemons/godebug v1.1.0 // indirect
	github.com/lufia/plan9stats v0.0.0-20211012122336-39d0f177ccd0 // indirect
	github.com/magiconair/properties v1.8.7 // indirect
	github.com/mailru/easyjson v0.7.7 // indirect
	github.com/mattermost/xml-roundtrip-validator v0.1.0 // indirect
	github.com/mattn/go-colorable v0.1.13 // indirect
	github.com/mattn/go-isatty v0.0.20 // indirect
	github.com/matttproud/golang_protobuf_extensions v1.0.4 // indirect
	github.com/miekg/dns v1.1.55 // indirect
	github.com/mitchellh/copystructure v1.0.0 // indirect
	github.com/mitchellh/go-homedir v1.1.0 // indirect
	github.com/mitchellh/reflectwalk v1.0.1 // indirect
	github.com/modern-go/concurrent v0.0.0-20180306012644-bacd9c7ef1dd // indirect
	github.com/modern-go/reflect2 v1.0.2 // indirect
	github.com/munnerz/goautoneg v0.0.0-20191010083416-a7dc8b61c822 // indirect
	github.com/mwitkow/go-conntrack v0.0.0-20190716064945-2f068394615f // indirect
	github.com/oklog/ulid v1.3.1 // indirect
	github.com/onsi/gomega v1.27.4 // indirect
	github.com/opentracing-contrib/go-grpc v0.0.0-20210225150812-73cb765af46e // indirect
	github.com/opentracing-contrib/go-stdlib v1.0.0 // indirect
	github.com/opentracing/opentracing-go v1.2.0 // indirect
	github.com/pelletier/go-toml/v2 v2.0.9 // indirect
	github.com/pierrec/lz4/v4 v4.1.18 // indirect
	github.com/pkg/browser v0.0.0-20210911075715-681adbf594b8 // indirect
	github.com/pkg/errors v0.9.1 // indirect
	github.com/pmezard/go-difflib v1.0.1-0.20181226105442-5d4384ee4fb2 // indirect
	github.com/power-devops/perfstat v0.0.0-20210106213030-5aafc221ea8c // indirect
	github.com/prometheus/alertmanager v0.26.0 // indirect
	github.com/prometheus/client_model v0.4.0 // indirect
	github.com/prometheus/common/sigv4 v0.1.0 // indirect
	github.com/prometheus/exporter-toolkit v0.10.1-0.20230714054209-2f4150c63f97 // indirect
	github.com/prometheus/procfs v0.11.0 // indirect
	github.com/prometheus/prometheus v1.8.2-0.20211011171444-354d8d2ecfac // indirect
	github.com/russellhaering/goxmldsig v1.3.0 // indirect
	github.com/sean-/seed v0.0.0-20170313163322-e2103e2c3529 // indirect
	github.com/segmentio/asm v1.2.0 // indirect
	github.com/sercand/kuberesolver/v5 v5.1.1 // indirect
	github.com/shoenig/go-m1cpu v0.1.6 // indirect
	github.com/shopspring/decimal v1.2.0 // indirect
	github.com/sirupsen/logrus v1.9.3 // indirect
	github.com/soheilhy/cmux v0.1.5 // indirect
	github.com/sony/gobreaker v0.5.0 // indirect
	github.com/spaolacci/murmur3 v1.1.0 // indirect
	github.com/spf13/afero v1.9.5 // indirect
	github.com/spf13/cast v1.5.1 // indirect
	github.com/spf13/jwalterweatherman v1.1.0 // indirect
	github.com/spf13/pflag v1.0.5 // indirect
	github.com/stretchr/objx v0.5.0 // indirect
	github.com/subosito/gotenv v1.4.2 // indirect
	github.com/tklauser/go-sysconf v0.3.12 // indirect
	github.com/tklauser/numcpus v0.6.1 // indirect
	github.com/uber/jaeger-client-go v2.30.0+incompatible // indirect
	github.com/uber/jaeger-lib v2.4.1+incompatible // indirect
	github.com/willf/bitset v1.1.11 // indirect
	github.com/willf/bloom v2.0.3+incompatible // indirect
	github.com/yusufpapurcu/wmi v1.2.3 // indirect
	go.etcd.io/etcd/api/v3 v3.5.9 // indirect
	go.etcd.io/etcd/client/pkg/v3 v3.5.9 // indirect
	go.etcd.io/etcd/client/v3 v3.5.9 // indirect
	go.mongodb.org/mongo-driver v1.12.0 // indirect
	go.opencensus.io v0.24.0 // indirect
	go.opentelemetry.io/collector/pdata v1.0.0-rcv0015 // indirect
	go.opentelemetry.io/collector/semconv v0.81.0 // indirect
	go.opentelemetry.io/contrib/instrumentation/net/http/otelhttp v0.44.0 // indirect
	go.uber.org/atomic v1.11.0 // indirect
	go.uber.org/goleak v1.2.1 // indirect
	go.uber.org/zap v1.26.0 // indirect
	go4.org/netipx v0.0.0-20230125063823-8449b0a6169f // indirect
	golang.org/x/exp v0.0.0-20230801115018-d63ba01acd4b // indirect
	golang.org/x/mod v0.14.0 // indirect
	golang.org/x/net v0.19.0 // indirect
	golang.org/x/sync v0.5.0 // indirect
	golang.org/x/sys v0.15.0 // indirect
	golang.org/x/text v0.14.0 // indirect
	golang.org/x/time v0.3.0 // indirect
	golang.org/x/tools v0.16.0 // indirect
	google.golang.org/appengine v1.6.7 // indirect
	google.golang.org/genproto v0.0.0-20231002182017-d307bd883b97 // indirect
	google.golang.org/genproto/googleapis/api v0.0.0-20231002182017-d307bd883b97 // indirect
	google.golang.org/genproto/googleapis/rpc v0.0.0-20231012201019-e917dd12ba7a // indirect
	gopkg.in/cenkalti/backoff.v2 v2.2.1 // indirect
	gopkg.in/ini.v1 v1.67.0 // indirect
	gopkg.in/yaml.v2 v2.4.0 // indirect
	gopkg.in/yaml.v3 v3.0.1 // indirect
)

// https://github.com/grafana/loki/issues/2826
replace github.com/hashicorp/consul => github.com/hashicorp/consul v1.14.5

// https://github.com/grafana/loki/issues/2826
replace k8s.io/client-go => k8s.io/client-go v0.28.1

// https://github.com/grafana/loki/issues/2826
exclude k8s.io/client-go v8.0.0+incompatible

// https://github.com/grafana/loki/issues/2826
replace github.com/prometheus/prometheus => github.com/prometheus/prometheus v0.47.2-0.20231010075449-4b9c19fe5510

// https://github.com/grafana/loki/issues/2826
replace github.com/grafana/loki/pkg/push => github.com/grafana/loki/pkg/push v0.0.0-20231124145642-d62d4e37d1f3
